LAB-6
…
Question 1: What specialties do we have?

Use the count() function from dplyr to figure out how many different categories we have in the data. Are these categories related? Overlapping? Evenly distributed?

answer: 40 categories are there , some categories are related, they are not evenly distributed

mt_samples %>%
  count(medical_specialty, sort = TRUE)

# A tibble: 40 × 2
   medical_specialty                 n
   <chr>                         <int>
 1 Surgery                        1103
 2 Consult - History and Phy.      516
 3 Cardiovascular / Pulmonary      372
 4 Orthopedic                      355
 5 Radiology                       273
 6 General Medicine                259
 7 Gastroenterology                230
 8 Neurology                       223
 9 SOAP / Chart / Progress Notes   166
10 Obstetrics / Gynecology         160
# ℹ 30 more rows
…
  #Tri-grams
  mt_samples %>%
  unnest_tokens(trigram, transcription, token = "ngrams", n = 3 ) %>%
  count(trigram, sort = TRUE) %>%
  top_n(20, n) 

# A tibble: 22 × 2
   trigram                n
   <chr>              <int>
 1 the patient was     6104
 2 the patient is      3075
 3 as well as          2243
 4 there is no         1678
 5 the operating room  1532
 6 patient is a        1491
 7 prepped and draped  1490
 8 was used to         1480
 9 and draped in       1372
10 at this time        1333
# ℹ 12 more rows

Question 5

mt_samples %>%
  unnest_tokens(bigram, transcription, token ="ngrams", n = 2) %>%
  separate(bigram, c("word1", "word2"), sep = " ") %>%
  filter(word1 == "patient" | word2 == "pateint") %>%
  count(word1, word2, sort = TRUE) 

# A tibble: 588 × 3
   word1   word2         n
   <chr>   <chr>     <int>
 1 patient was        6293
 2 patient is         3332
 3 patient has        1417
 4 patient tolerated   994
 5 patient had         888
 6 patient will        616
 7 patient denies      552
 8 patient and         377
 9 patient states      363
10 patient does        334
# ℹ 578 more rows

Question 6

# top 5 word used for each speciality 
mt_samples %>%
  unnest_tokens(word, transcription) %>%
  anti_join(stop_words %>% filter(!word %in% c("right", "left")), by ="word") %>%
  filter(!grepl("^[0-9]+$", word)) %>%
  group_by(medical_specialty) %>%
  count(word, sort = TRUE) %>%
  top_n(5, n) %>%
arrange(medical_specialty, desc(n))

# A tibble: 208 × 3
# Groups:   medical_specialty [40]
   medical_specialty    word          n
   <chr>                <chr>     <int>
 1 Allergy / Immunology history      38
 2 Allergy / Immunology noted        23
 3 Allergy / Immunology patient      22
 4 Allergy / Immunology allergies    21
 5 Allergy / Immunology nasal        13
 6 Allergy / Immunology past         13
 7 Autopsy              right       108
 8 Autopsy              left         83
 9 Autopsy              inch         59
10 Autopsy              neck         55
# ℹ 198 more rows

mt_samples %>%
  unnest_tokens(word, transcription) %>%
  anti_join(stop_words , by ="word") %>%
  filter(!grepl("^[0-9]+$", word)) %>%
  group_by(medical_specialty) %>%
  count(word, sort = TRUE) %>%
  top_n(5, n) %>%
arrange(medical_specialty, desc(n))

# A tibble: 210 × 3
# Groups:   medical_specialty [40]
   medical_specialty    word          n
   <chr>                <chr>     <int>
 1 Allergy / Immunology history      38
 2 Allergy / Immunology noted        23
 3 Allergy / Immunology patient      22
 4 Allergy / Immunology allergies    21
 5 Allergy / Immunology nasal        13
 6 Allergy / Immunology past         13
 7 Autopsy              left         83
 8 Autopsy              inch         59
 9 Autopsy              neck         55
10 Autopsy              anterior     47
# ℹ 200 more rows
…
